{
	"data": [
		{
			"name": "Human",
			"type": "Balanced"
		},
		{
			"name": "Elf",
			"type": "Speed"
		},
		{
			"name": "Kobold",
			"type": "Speed"
		},
		{
			"name": "Orc",
			"type": "Strenght"
		},
		{
			"name": "Dwarf",
			"type": "Strenght"
		}
	]
}